{
    "base_library.zip": "65a75bbd17ff05eba8ecf8046799b07f97589b5b5d36cdebc33a95c25989def6",
    "changelog.log": "060227b43d3bc565d58fb806b65da5c1bf36f97e10d9a7bf34805bb1340548af",
    "Config.py": "216ff524483d326b963959748bc5e977b112c4dcc8c2b86f1e65997679423d92",
    "Console.exe.manifest": "b0bd46fc5012f26897627c9c4ba39a0aec754847be1ab5ded32d7f8602b92b0a",
    "HunterPresence.py": "a1a267aad60633d9ea0e7be522714c28b47e0f5d289b3b8ae1513a4609bd6037",
    "HunterPy.exe": "dfaeb3f9e9008b141f780174c770385a18091bad81c413c34b5506a550b1c549",
    "HunterPy.py": "8ed69eb12b7a78542281d7d67f9d4311bf2e951820d10c5106aef97d2f3061eb",
    "hunterpyqrc_rc.py": "1473000b9294b7cb325d7cc5310fdd88bf3cb3c77f961b4efee0d433c4d2c947",
    "icon.ico": "a317d6411bbbaa35ec64e8d8a39644fdb405f93c7778015c55ffa884937658ba",
    "libGLESv2.dll": "f7a77144fdaa44fb24d55d414b4118e5a893b2228d78c5d16820df8dc4655947",
    "mainResources_rc.py": "ab0d12b0d3ef50bcd1b12d39cc13d12995f75c13eb1483a2ab16afe6402e1045",
    "Memory.py": "c092382dfc8d74f7089862753daa43c9ae4ef255f9e45228ff7cb7d1797e92f2",
    "MSVCP140.dll": "85a415f7aa8a1e7d10e05e713c91a3aec9bf3f4c821eba10df2d20b1a02e3882",
    "Overlay.py": "a7130961df37927c7f17abca0c8f70a7eba6d13bfdbd445874fec694181d0669",
    "overlayNew.py": "8a76bb88d87f7f7d1aed24b30df834eb8c1c7485e3ee1f0f77a3233cd4a240d6",
    "presence.py": "53694f23910623e2f4100c3506463abbb2f9c08a8d6e6a744d307bf1d273533c",
    "pyexpat.pyd": "fc8a024557d56089dcec21e7b3e5bcf193713ac8166141622414f7bd57154f87",
    "python3.dll": "5f24e5e8675d43717f5ba5eb97241333236f4cb058230143205667da80f42bbe",
    "python36.dll": "38d7849a56a17c9f5dce23e08091381b7a02b2c1ee4f66e196e11cd559b0a61c",
    "pywintypes36.dll": "cd957cad3ead07d6b1a5ffa713ef34b8ba36b0f944dc4ed2f92d6f65659d4d4e",
    "Qt5Core.dll": "e2a0188b161ba8b1dabee94c00fa29cd83abd2d7c04996afd7ebbbab612b6fcd",
    "Qt5DBus.dll": "2801529b4edf86958689248cf77a6e39f0e1bc4b942183c3331f96da947e3ee0",
    "Qt5Gui.dll": "b4a2c9c8454826eef63ee5807a832f97ef7fc630f1635e758e7381f2be05ee5c",
    "Qt5Network.dll": "e29ac60ba5acf914a8d621d2cb69a6e0c9affd64a29d467cc6ef9c6b50ee13e8",
    "Qt5Qml.dll": "cf2ee2a99e30ddfe4af66a5a4b31922a4c40188d421e08b153e1db311d9b37a7",
    "Qt5Quick.dll": "e391eb704dafd57db1d70be9f709a7a50368091406544423d03416b7eee63fe4",
    "Qt5Svg.dll": "bc4b9ea6f344f2c64e91447c2ebdabef6ab29e73bb5e1cdac58bb4fe6a83f80a",
    "Qt5WebSockets.dll": "0f6b0b260ba0d4942be4e14485ecc28355d768a598693563a268a312abf19bd8",
    "Qt5Widgets.dll": "50bbd1bad5d7c0fa7341bf80c4f8950f1049930e24cdfa9d0282a522717c51a7",
    "select.pyd": "ca973eb28266c1326efc7306dd788b4777b8715894458694795750deb8a8dbbb",
    "unicodedata.pyd": "2e486db4c9ad2f8d382d26bb88f806b74be345fce48bef473b102afa128ccc79",
    "update.exe.manifest": "e8811745a197ae4b435730b51f4135153a1d7c199555a91ba1952136576e4f9a",
    "VCRUNTIME140.dll": "d89c7b863fc1ac3a179d45d5fe1b9fd35fb6fbd45171ca68d0d68ab1c1ad04fb",
    "version.txt": "06e19dead69dcc16bc573cc9f24b68b69907f4cfd4afb9d70372cc6b462a9862",
    "win32wnet.pyd": "35c3864c6edb30f6d831afc1951ff8e26bbb2778bdffefe0ae0c14430b01376f",
    "_asyncio.pyd": "32f8bf1ac521a6c2cac5ca3326e0cd4d2d78551f224f83951a6cd3accd46aa98",
    "_bz2.pyd": "d346fe3b7434f21c6027cf2306ce0b733120f9398e1e304fce8798382a6abb96",
    "_cffi_backend.cp36-win_amd64.pyd": "7c6c476147e5c48645aab10afd4474a153b37d9ca243f456f84e9ef215b490c0",
    "_ctypes.pyd": "d7ff9be03be22e589d8ce2462d44f173375409b2db27a3457c3419ad4ca8c429",
    "_decimal.pyd": "3c5fbde9562c2fe77d9a2363719224199b6b8de5fd11c501985aac1dddb075df",
    "_elementtree.pyd": "82738a4c2b9c799318007ff8a12c6b9795b6cbcd8b8265a92c18a097f7595240",
    "_hashlib.pyd": "fc28fd2ec37663a1e19a37a0faa81b47ce1e6215175ad15a0138d91056358347",
    "_lzma.pyd": "c41ab7af2ca47f6154cf9a6133b121153933135acd9e0c14efbc99260e1aa8c0",
    "_multiprocessing.pyd": "c85e56afc01aaba34d7e01d8d2d5207e0c8e511a09e99a7129ef0be6cf80ba97",
    "_overlapped.pyd": "e71e9530245f024a7ab2eebcf15fc50f3213fa15b9103345e49ad2b1d0ae7038",
    "_socket.pyd": "9623e56b79a5a4903e6effd1bb33043b300ff9377f5cee9ee97d8bc6595d8fb2",
    "_ssl.pyd": "ef9830fb0ccb8c1d490347e4724283b9c80cde096fbb505653dcb4c2f061e3e5"
}